…
The most popular day of week for placing orders is Sunday.

  - What time on Sundays are people placing orders?

<!-- end list -->

``` r
instacart_data %>% 
  filter(order_dow == "0") %>% 
  select(order_hour_of_day) %>% 
  count(order_hour_of_day, name = "n_hour") %>% 
  arrange(desc(n_hour))
```

    ## # A tibble: 24 x 2
    ##    order_hour_of_day n_hour
    ##                <int>  <int>
    ##  1                14  31000
    ##  2                15  29221
    ##  3                13  28721
    ##  4                11  28534
    ##  5                12  27737
    ##  6                10  26824
    ##  7                16  26300
    ##  8                17  21110
    ##  9                 9  21045
    ## 10                18  15574
    ## # … with 14 more rows
…
